\relax 
\providecommand\babel@aux[2]{}
\@nameuse{bbl@beforestart}
\catcode `:\active 
\catcode `;\active 
\catcode `!\active 
\catcode `?\active 
\babel@aux{french}{}
\@writefile{toc}{\contentsline {section}{\numberline {1}Introduction}{3}{}\protected@file@percent }
\@writefile{toc}{\contentsline {section}{\numberline {2}Contexte}{4}{}\protected@file@percent }
\@writefile{toc}{\contentsline {subsection}{\numberline {2.1}Analyse}{4}{}\protected@file@percent }
\@writefile{toc}{\contentsline {subsection}{\numberline {2.2}Méthode agile}{5}{}\protected@file@percent }
\@writefile{toc}{\contentsline {subsubsection}{\numberline {2.2.1}Définition}{5}{}\protected@file@percent }
\@writefile{toc}{\contentsline {subsubsection}{\numberline {2.2.2}La méthode Scrum}{6}{}\protected@file@percent }
\@writefile{toc}{\contentsline {subsubsection}{\numberline {2.2.3}Mise en place concrète}{6}{}\protected@file@percent }
\@writefile{toc}{\contentsline {subsubsection}{\numberline {2.2.4}User stories}{7}{}\protected@file@percent }
\@writefile{toc}{\contentsline {subsection}{\numberline {2.3}Langages, technologies et outils}{8}{}\protected@file@percent }
\@writefile{toc}{\contentsline {subsubsection}{\numberline {2.3.1}L'environnement de Blitz}{8}{}\protected@file@percent }
\@writefile{lof}{\contentsline {figure}{\numberline {1}{\ignorespaces Structure de l'environnement de l'application}}{9}{}\protected@file@percent }
\@writefile{toc}{\contentsline {subsubsection}{\numberline {2.3.2}TypeScript}{9}{}\protected@file@percent }
\@writefile{toc}{\contentsline {subsubsection}{\numberline {2.3.3}React}{10}{}\protected@file@percent }
\@writefile{lol}{\contentsline {lstlisting}{\numberline {1}Exemple d'un \textit  {component} react}{10}{}\protected@file@percent }
\@writefile{toc}{\contentsline {subsubsection}{\numberline {2.3.4}Next.js}{11}{}\protected@file@percent }
\@writefile{lof}{\contentsline {figure}{\numberline {2}{\ignorespaces Schéma du processus de \textit  {client side rendering (CSR)} avec React}}{12}{}\protected@file@percent }
\@writefile{lof}{\contentsline {figure}{\numberline {3}{\ignorespaces Schéma du processus de \textit  {server side rendering (SSR)} avec Next.js}}{12}{}\protected@file@percent }
\@writefile{toc}{\contentsline {subsubsection}{\numberline {2.3.5}Prisma}{13}{}\protected@file@percent }
\@writefile{lol}{\contentsline {lstlisting}{\numberline {2}Exemple de la description d'un modèle avec prisma}{13}{}\protected@file@percent }
\@writefile{toc}{\contentsline {subsubsection}{\numberline {2.3.6}Docker}{14}{}\protected@file@percent }
\@writefile{lol}{\contentsline {lstlisting}{\numberline {3}docker-compose.yaml}{14}{}\protected@file@percent }
\@writefile{toc}{\contentsline {subsubsection}{\numberline {2.3.7}Blitz.js}{15}{}\protected@file@percent }
\@writefile{toc}{\contentsline {subsubsection}{\numberline {2.3.8}Les librairies tiers}{15}{}\protected@file@percent }
\@writefile{toc}{\contentsline {subsubsection}{\numberline {2.3.9}AzureDevops}{16}{}\protected@file@percent }
\@writefile{lof}{\contentsline {figure}{\numberline {4}{\ignorespaces Azure Devops: gestion d'un \textit  {sprint}}}{16}{}\protected@file@percent }
\@writefile{toc}{\contentsline {subsubsection}{\numberline {2.3.10}Vim}{16}{}\protected@file@percent }
\@writefile{toc}{\contentsline {subsubsection}{\numberline {2.3.11}Git, GitLab et Fork}{16}{}\protected@file@percent }
\@writefile{lof}{\contentsline {figure}{\numberline {5}{\ignorespaces GitLab: liste des \textit  {issues}}}{17}{}\protected@file@percent }
\@writefile{lof}{\contentsline {figure}{\numberline {6}{\ignorespaces Fork: gestion des \textit  {commits}}}{18}{}\protected@file@percent }
\@writefile{toc}{\contentsline {section}{\numberline {3}L'application}{18}{}\protected@file@percent }
\@writefile{toc}{\contentsline {subsection}{\numberline {3.1}Présentation de l'application}{18}{}\protected@file@percent }
\@writefile{toc}{\contentsline {subsection}{\numberline {3.2}Difficultés rencontrées, modifications des plans}{19}{}\protected@file@percent }
\@writefile{toc}{\contentsline {subsubsection}{\numberline {3.2.1}La cogestion de la conception}{19}{}\protected@file@percent }
\@writefile{toc}{\contentsline {subsubsection}{\numberline {3.2.2}L'apprentissage de la technologie}{19}{}\protected@file@percent }
\@writefile{lol}{\contentsline {lstlisting}{\numberline {4}Mutation d'un nouveau devis: createQuote.ts}{19}{}\protected@file@percent }
\@writefile{toc}{\contentsline {subsubsection}{\numberline {3.2.3}L'échelle de l'application}{20}{}\protected@file@percent }
\@writefile{toc}{\contentsline {subsubsection}{\numberline {3.2.4}L'évolution du schéma de la base de données}{21}{}\protected@file@percent }
\@writefile{toc}{\contentsline {subsubsection}{\numberline {3.2.5}La génération de PDF}{21}{}\protected@file@percent }
\@writefile{toc}{\contentsline {subsubsection}{\numberline {3.2.6}La gestion des \textit  {components}}{21}{}\protected@file@percent }
\@writefile{toc}{\contentsline {subsubsection}{\numberline {3.2.7}La modification du premier public cible}{22}{}\protected@file@percent }
\@writefile{toc}{\contentsline {subsection}{\numberline {3.3}Les limites du projet}{22}{}\protected@file@percent }
\@writefile{toc}{\contentsline {subsubsection}{\numberline {3.3.1}La gestion du \textit  {responsive}}{22}{}\protected@file@percent }
\@writefile{toc}{\contentsline {subsubsection}{\numberline {3.3.2}L'environnement de production}{23}{}\protected@file@percent }
\@writefile{toc}{\contentsline {subsubsection}{\numberline {3.3.3}Le système de monétisation}{23}{}\protected@file@percent }
\@writefile{toc}{\contentsline {subsection}{\numberline {3.4}L'application aujourd'hui et le MVP}{23}{}\protected@file@percent }
\@writefile{toc}{\contentsline {subsubsection}{\numberline {3.4.1}La gestion de compte utilisateur}{23}{}\protected@file@percent }
\@writefile{lof}{\contentsline {figure}{\numberline {7}{\ignorespaces Vue de l'interface de gestion du compte utilisateur}}{24}{}\protected@file@percent }
\@writefile{toc}{\contentsline {subsubsection}{\numberline {3.4.2}Le coeur de l'application}{24}{}\protected@file@percent }
\@writefile{lof}{\contentsline {figure}{\numberline {8}{\ignorespaces Vue du \textit  {stepper} de création de devis}}{25}{}\protected@file@percent }
\@writefile{lof}{\contentsline {figure}{\numberline {9}{\ignorespaces Vue du listing des clients}}{25}{}\protected@file@percent }
\@writefile{toc}{\contentsline {subsubsection}{\numberline {3.4.3}Le produit de l'application}{26}{}\protected@file@percent }
\@writefile{toc}{\contentsline {subsection}{\numberline {3.5}L'avenir du projet}{26}{}\protected@file@percent }
\@writefile{toc}{\contentsline {section}{\numberline {4}Conclusion}{27}{}\protected@file@percent }
\bibcite{}{1}
\bibcite{}{2}
\bibcite{}{3}
\bibcite{}{4}
\bibcite{}{5}
\bibcite{}{6}
\bibcite{}{7}
\bibcite{}{8}
\@writefile{toc}{\contentsline {section}{\numberline {5}Bibliographie}{28}{}\protected@file@percent }
\@writefile{toc}{\contentsline {section}{\numberline {6}Annexes}{29}{}\protected@file@percent }
\@writefile{toc}{\contentsline {subsection}{\numberline {6.1}Annexe 1: Exepmple de tableau de services d'un électricien}{29}{}\protected@file@percent }
\@writefile{toc}{\contentsline {subsection}{\numberline {6.2}Annexe 2: Schéma de la base de données}{30}{}\protected@file@percent }
\gdef \@abspage@last{32}
