PWD /Users/jp/tfe/rapport
INPUT /usr/local/texlive/2022/texmf.cnf
INPUT /usr/local/texlive/2022/texmf-dist/web2c/texmf.cnf
INPUT /usr/local/texlive/2022/texmf-var/web2c/pdftex/pdflatex.fmt
INPUT /Users/jp/tfe/rapport/main.tex
OUTPUT main.log
INPUT /usr/local/texlive/2022/texmf-dist/tex/latex/base/article.cls
INPUT /usr/local/texlive/2022/texmf-dist/tex/latex/base/article.cls
INPUT /usr/local/texlive/2022/texmf-dist/tex/latex/base/article.cls
INPUT /usr/local/texlive/2022/texmf-dist/tex/latex/base/article.cls
INPUT /usr/local/texlive/2022/texmf-dist/tex/latex/base/article.cls
INPUT /usr/local/texlive/2022/texmf-dist/tex/latex/base/article.cls
INPUT /usr/local/texlive/2022/texmf-dist/tex/latex/base/article.cls
INPUT /usr/local/texlive/2022/texmf-dist/tex/latex/base/article.cls
INPUT /usr/local/texlive/2022/texmf-dist/tex/latex/base/article.cls
INPUT /usr/local/texlive/2022/texmf-dist/tex/latex/base/article.cls
INPUT /usr/local/texlive/2022/texmf-dist/tex/latex/base/article.cls
INPUT /usr/local/texlive/2022/texmf-dist/tex/latex/base/size10.clo
INPUT /usr/local/texlive/2022/texmf-dist/tex/latex/base/size10.clo
INPUT /usr/local/texlive/2022/texmf-dist/tex/latex/base/size10.clo
INPUT /usr/local/texlive/2022/texmf-dist/tex/latex/base/size10.clo
INPUT /usr/local/texlive/2022/texmf-dist/tex/latex/base/inputenc.sty
INPUT /usr/local/texlive/2022/texmf-dist/tex/latex/base/inputenc.sty
INPUT /usr/local/texlive/2022/texmf-dist/tex/latex/base/inputenc.sty
INPUT /usr/local/texlive/2022/texmf-dist/tex/latex/base/inputenc.sty
INPUT /usr/local/texlive/2022/texmf-dist/tex/latex/base/inputenc.sty
INPUT /usr/local/texlive/2022/texmf-dist/tex/latex/base/inputenc.sty
INPUT /usr/local/texlive/2022/texmf-dist/tex/latex/base/inputenc.sty
INPUT /usr/local/texlive/2022/texmf-dist/tex/latex/base/inputenc.sty
INPUT /usr/local/texlive/2022/texmf-dist/tex/latex/base/inputenc.sty
INPUT /usr/local/texlive/2022/texmf-dist/tex/latex/base/inputenc.sty
INPUT /usr/local/texlive/2022/texmf-dist/tex/latex/base/inputenc.sty
INPUT /usr/local/texlive/2022/texmf-dist/tex/latex/graphics/graphicx.sty
INPUT /usr/local/texlive/2022/texmf-dist/tex/latex/graphics/graphicx.sty
INPUT /usr/local/texlive/2022/texmf-dist/tex/latex/graphics/graphicx.sty
INPUT /usr/local/texlive/2022/texmf-dist/tex/latex/graphics/graphicx.sty
INPUT /usr/local/texlive/2022/texmf-dist/tex/latex/graphics/graphicx.sty
INPUT /usr/local/texlive/2022/texmf-dist/tex/latex/graphics/graphicx.sty
INPUT /usr/local/texlive/2022/texmf-dist/tex/latex/graphics/graphicx.sty
INPUT /usr/local/texlive/2022/texmf-dist/tex/latex/graphics/graphicx.sty
INPUT /usr/local/texlive/2022/texmf-dist/tex/latex/graphics/graphicx.sty
INPUT /usr/local/texlive/2022/texmf-dist/tex/latex/graphics/graphicx.sty
INPUT /usr/local/texlive/2022/texmf-dist/tex/latex/graphics/graphicx.sty
INPUT /usr/local/texlive/2022/texmf-dist/tex/latex/graphics/keyval.sty
INPUT /usr/local/texlive/2022/texmf-dist/tex/latex/graphics/keyval.sty
INPUT /usr/local/texlive/2022/texmf-dist/tex/latex/graphics/keyval.sty
INPUT /usr/local/texlive/2022/texmf-dist/tex/latex/graphics/keyval.sty
INPUT /usr/local/texlive/2022/texmf-dist/tex/latex/graphics/keyval.sty
INPUT /usr/local/texlive/2022/texmf-dist/tex/latex/graphics/keyval.sty
INPUT /usr/local/texlive/2022/texmf-dist/tex/latex/graphics/keyval.sty
INPUT /usr/local/texlive/2022/texmf-dist/tex/latex/graphics/keyval.sty
INPUT /usr/local/texlive/2022/texmf-dist/tex/latex/graphics/keyval.sty
INPUT /usr/local/texlive/2022/texmf-dist/tex/latex/graphics/keyval.sty
INPUT /usr/local/texlive/2022/texmf-dist/tex/latex/graphics/keyval.sty
INPUT /usr/local/texlive/2022/texmf-dist/tex/latex/graphics/graphics.sty
INPUT /usr/local/texlive/2022/texmf-dist/tex/latex/graphics/graphics.sty
INPUT /usr/local/texlive/2022/texmf-dist/tex/latex/graphics/graphics.sty
INPUT /usr/local/texlive/2022/texmf-dist/tex/latex/graphics/graphics.sty
INPUT /usr/local/texlive/2022/texmf-dist/tex/latex/graphics/graphics.sty
INPUT /usr/local/texlive/2022/texmf-dist/tex/latex/graphics/graphics.sty
INPUT /usr/local/texlive/2022/texmf-dist/tex/latex/graphics/graphics.sty
INPUT /usr/local/texlive/2022/texmf-dist/tex/latex/graphics/graphics.sty
INPUT /usr/local/texlive/2022/texmf-dist/tex/latex/graphics/graphics.sty
INPUT /usr/local/texlive/2022/texmf-dist/tex/latex/graphics/graphics.sty
INPUT /usr/local/texlive/2022/texmf-dist/tex/latex/graphics/graphics.sty
INPUT /usr/local/texlive/2022/texmf-dist/tex/latex/graphics/trig.sty
INPUT /usr/local/texlive/2022/texmf-dist/tex/latex/graphics/trig.sty
INPUT /usr/local/texlive/2022/texmf-dist/tex/latex/graphics/trig.sty
INPUT /usr/local/texlive/2022/texmf-dist/tex/latex/graphics/trig.sty
INPUT /usr/local/texlive/2022/texmf-dist/tex/latex/graphics/trig.sty
INPUT /usr/local/texlive/2022/texmf-dist/tex/latex/graphics/trig.sty
INPUT /usr/local/texlive/2022/texmf-dist/tex/latex/graphics/trig.sty
INPUT /usr/local/texlive/2022/texmf-dist/tex/latex/graphics/trig.sty
INPUT /usr/local/texlive/2022/texmf-dist/tex/latex/graphics/trig.sty
INPUT /usr/local/texlive/2022/texmf-dist/tex/latex/graphics/trig.sty
INPUT /usr/local/texlive/2022/texmf-dist/tex/latex/graphics/trig.sty
INPUT /usr/local/texlive/2022/texmf-dist/tex/latex/graphics-cfg/graphics.cfg
INPUT /usr/local/texlive/2022/texmf-dist/tex/latex/graphics-cfg/graphics.cfg
INPUT /usr/local/texlive/2022/texmf-dist/tex/latex/graphics-cfg/graphics.cfg
INPUT /usr/local/texlive/2022/texmf-dist/tex/latex/graphics-cfg/graphics.cfg
INPUT /usr/local/texlive/2022/texmf-dist/tex/latex/graphics-def/pdftex.def
INPUT /usr/local/texlive/2022/texmf-dist/tex/latex/graphics-def/pdftex.def
INPUT /usr/local/texlive/2022/texmf-dist/tex/latex/graphics-def/pdftex.def
INPUT /usr/local/texlive/2022/texmf-dist/tex/latex/graphics-def/pdftex.def
INPUT /usr/local/texlive/2022/texmf-dist/tex/generic/babel/babel.sty
INPUT /usr/local/texlive/2022/texmf-dist/tex/generic/babel/babel.sty
INPUT /usr/local/texlive/2022/texmf-dist/tex/generic/babel/babel.sty
INPUT /usr/local/texlive/2022/texmf-dist/tex/generic/babel/babel.sty
INPUT /usr/local/texlive/2022/texmf-dist/tex/generic/babel/babel.sty
INPUT /usr/local/texlive/2022/texmf-dist/tex/generic/babel/babel.sty
INPUT /usr/local/texlive/2022/texmf-dist/tex/generic/babel/babel.sty
INPUT /usr/local/texlive/2022/texmf-dist/tex/generic/babel/babel.sty
INPUT /usr/local/texlive/2022/texmf-dist/tex/generic/babel/babel.sty
INPUT /usr/local/texlive/2022/texmf-dist/tex/generic/babel/babel.sty
INPUT /usr/local/texlive/2022/texmf-dist/tex/generic/babel/babel.sty
INPUT /usr/local/texlive/2022/texmf-dist/tex/generic/babel/txtbabel.def
INPUT /usr/local/texlive/2022/texmf-dist/tex/generic/babel-french/french.ldf
INPUT /usr/local/texlive/2022/texmf-dist/tex/generic/babel-french/french.ldf
INPUT /usr/local/texlive/2022/texmf-dist/tex/generic/babel-french/french.ldf
INPUT /usr/local/texlive/2022/texmf-dist/tex/generic/babel-french/french.ldf
INPUT /usr/local/texlive/2022/texmf-dist/tex/latex/carlisle/scalefnt.sty
INPUT /usr/local/texlive/2022/texmf-dist/tex/latex/carlisle/scalefnt.sty
INPUT /usr/local/texlive/2022/texmf-dist/tex/latex/carlisle/scalefnt.sty
INPUT /usr/local/texlive/2022/texmf-dist/tex/latex/carlisle/scalefnt.sty
INPUT /usr/local/texlive/2022/texmf-dist/tex/latex/carlisle/scalefnt.sty
INPUT /usr/local/texlive/2022/texmf-dist/tex/latex/carlisle/scalefnt.sty
INPUT /usr/local/texlive/2022/texmf-dist/tex/latex/carlisle/scalefnt.sty
INPUT /usr/local/texlive/2022/texmf-dist/tex/latex/carlisle/scalefnt.sty
INPUT /usr/local/texlive/2022/texmf-dist/tex/latex/carlisle/scalefnt.sty
INPUT /usr/local/texlive/2022/texmf-dist/tex/latex/carlisle/scalefnt.sty
INPUT /usr/local/texlive/2022/texmf-dist/tex/latex/carlisle/scalefnt.sty
INPUT /usr/local/texlive/2022/texmf-dist/tex/latex/graphics/keyval.sty
INPUT /usr/local/texlive/2022/texmf-dist/tex/latex/float/float.sty
INPUT /usr/local/texlive/2022/texmf-dist/tex/latex/float/float.sty
INPUT /usr/local/texlive/2022/texmf-dist/tex/latex/float/float.sty
INPUT /usr/local/texlive/2022/texmf-dist/tex/latex/float/float.sty
INPUT /usr/local/texlive/2022/texmf-dist/tex/latex/float/float.sty
INPUT /usr/local/texlive/2022/texmf-dist/tex/latex/float/float.sty
INPUT /usr/local/texlive/2022/texmf-dist/tex/latex/float/float.sty
INPUT /usr/local/texlive/2022/texmf-dist/tex/latex/float/float.sty
INPUT /usr/local/texlive/2022/texmf-dist/tex/latex/float/float.sty
INPUT /usr/local/texlive/2022/texmf-dist/tex/latex/float/float.sty
INPUT /usr/local/texlive/2022/texmf-dist/tex/latex/float/float.sty
INPUT /usr/local/texlive/2022/texmf-dist/tex/latex/tools/afterpage.sty
INPUT /usr/local/texlive/2022/texmf-dist/tex/latex/tools/afterpage.sty
INPUT /usr/local/texlive/2022/texmf-dist/tex/latex/tools/afterpage.sty
INPUT /usr/local/texlive/2022/texmf-dist/tex/latex/tools/afterpage.sty
INPUT /usr/local/texlive/2022/texmf-dist/tex/latex/tools/afterpage.sty
INPUT /usr/local/texlive/2022/texmf-dist/tex/latex/tools/afterpage.sty
INPUT /usr/local/texlive/2022/texmf-dist/tex/latex/tools/afterpage.sty
INPUT /usr/local/texlive/2022/texmf-dist/tex/latex/tools/afterpage.sty
INPUT /usr/local/texlive/2022/texmf-dist/tex/latex/tools/afterpage.sty
INPUT /usr/local/texlive/2022/texmf-dist/tex/latex/tools/afterpage.sty
INPUT /usr/local/texlive/2022/texmf-dist/tex/latex/tools/afterpage.sty
INPUT /usr/local/texlive/2022/texmf-dist/tex/latex/listings/listings.sty
INPUT /usr/local/texlive/2022/texmf-dist/tex/latex/listings/listings.sty
INPUT /usr/local/texlive/2022/texmf-dist/tex/latex/listings/listings.sty
INPUT /usr/local/texlive/2022/texmf-dist/tex/latex/listings/listings.sty
INPUT /usr/local/texlive/2022/texmf-dist/tex/latex/listings/listings.sty
INPUT /usr/local/texlive/2022/texmf-dist/tex/latex/listings/listings.sty
INPUT /usr/local/texlive/2022/texmf-dist/tex/latex/listings/listings.sty
INPUT /usr/local/texlive/2022/texmf-dist/tex/latex/listings/listings.sty
INPUT /usr/local/texlive/2022/texmf-dist/tex/latex/listings/listings.sty
INPUT /usr/local/texlive/2022/texmf-dist/tex/latex/listings/listings.sty
INPUT /usr/local/texlive/2022/texmf-dist/tex/latex/listings/listings.sty
INPUT /usr/local/texlive/2022/texmf-dist/tex/latex/graphics/keyval.sty
INPUT /usr/local/texlive/2022/texmf-dist/tex/latex/listings/lstmisc.sty
INPUT /usr/local/texlive/2022/texmf-dist/tex/latex/listings/lstmisc.sty
INPUT /usr/local/texlive/2022/texmf-dist/tex/latex/listings/lstmisc.sty
INPUT /usr/local/texlive/2022/texmf-dist/tex/latex/listings/lstmisc.sty
INPUT /usr/local/texlive/2022/texmf-dist/tex/latex/listings/listings.cfg
INPUT /usr/local/texlive/2022/texmf-dist/tex/latex/listings/listings.cfg
INPUT /usr/local/texlive/2022/texmf-dist/tex/latex/listings/listings.cfg
INPUT /usr/local/texlive/2022/texmf-dist/tex/latex/listings/listings.cfg
INPUT /usr/local/texlive/2022/texmf-dist/tex/latex/graphics/color.sty
INPUT /usr/local/texlive/2022/texmf-dist/tex/latex/graphics/color.sty
INPUT /usr/local/texlive/2022/texmf-dist/tex/latex/graphics/color.sty
INPUT /usr/local/texlive/2022/texmf-dist/tex/latex/graphics/color.sty
INPUT /usr/local/texlive/2022/texmf-dist/tex/latex/graphics/color.sty
INPUT /usr/local/texlive/2022/texmf-dist/tex/latex/graphics/color.sty
INPUT /usr/local/texlive/2022/texmf-dist/tex/latex/graphics/color.sty
INPUT /usr/local/texlive/2022/texmf-dist/tex/latex/graphics/color.sty
INPUT /usr/local/texlive/2022/texmf-dist/tex/latex/graphics/color.sty
INPUT /usr/local/texlive/2022/texmf-dist/tex/latex/graphics/color.sty
INPUT /usr/local/texlive/2022/texmf-dist/tex/latex/graphics/color.sty
INPUT /usr/local/texlive/2022/texmf-dist/tex/latex/graphics-cfg/color.cfg
INPUT /usr/local/texlive/2022/texmf-dist/tex/latex/graphics-cfg/color.cfg
INPUT /usr/local/texlive/2022/texmf-dist/tex/latex/graphics-cfg/color.cfg
INPUT /usr/local/texlive/2022/texmf-dist/tex/latex/graphics-cfg/color.cfg
INPUT /usr/local/texlive/2022/texmf-dist/tex/latex/l3backend/l3backend-pdftex.def
INPUT /usr/local/texlive/2022/texmf-dist/tex/latex/l3backend/l3backend-pdftex.def
INPUT /usr/local/texlive/2022/texmf-dist/tex/latex/l3backend/l3backend-pdftex.def
INPUT /usr/local/texlive/2022/texmf-dist/tex/latex/l3backend/l3backend-pdftex.def
INPUT /usr/local/texlive/2022/texmf-dist/tex/latex/l3backend/l3backend-pdftex.def
INPUT /usr/local/texlive/2022/texmf-dist/tex/latex/l3backend/l3backend-pdftex.def
INPUT /usr/local/texlive/2022/texmf-dist/tex/latex/l3backend/l3backend-pdftex.def
INPUT /usr/local/texlive/2022/texmf-dist/tex/latex/l3backend/l3backend-pdftex.def
INPUT /usr/local/texlive/2022/texmf-dist/tex/latex/l3backend/l3backend-pdftex.def
INPUT /usr/local/texlive/2022/texmf-dist/tex/latex/l3backend/l3backend-pdftex.def
INPUT /usr/local/texlive/2022/texmf-dist/tex/latex/l3backend/l3backend-pdftex.def
INPUT ./main.aux
INPUT main.aux
INPUT main.aux
OUTPUT main.aux
INPUT /usr/local/texlive/2022/texmf-dist/tex/context/base/mkii/supp-pdf.mkii
INPUT /usr/local/texlive/2022/texmf-dist/tex/context/base/mkii/supp-pdf.mkii
INPUT /usr/local/texlive/2022/texmf-dist/tex/context/base/mkii/supp-pdf.mkii
INPUT /usr/local/texlive/2022/texmf-dist/tex/context/base/mkii/supp-pdf.mkii
INPUT /usr/local/texlive/2022/texmf-dist/tex/latex/epstopdf-pkg/epstopdf-base.sty
INPUT /usr/local/texlive/2022/texmf-dist/tex/latex/epstopdf-pkg/epstopdf-base.sty
INPUT /usr/local/texlive/2022/texmf-dist/tex/latex/epstopdf-pkg/epstopdf-base.sty
INPUT /usr/local/texlive/2022/texmf-dist/tex/latex/epstopdf-pkg/epstopdf-base.sty
INPUT /usr/local/texlive/2022/texmf-dist/tex/latex/epstopdf-pkg/epstopdf-base.sty
INPUT /usr/local/texlive/2022/texmf-dist/tex/latex/epstopdf-pkg/epstopdf-base.sty
INPUT /usr/local/texlive/2022/texmf-dist/tex/latex/epstopdf-pkg/epstopdf-base.sty
INPUT /usr/local/texlive/2022/texmf-dist/tex/latex/epstopdf-pkg/epstopdf-base.sty
INPUT /usr/local/texlive/2022/texmf-dist/tex/latex/epstopdf-pkg/epstopdf-base.sty
INPUT /usr/local/texlive/2022/texmf-dist/tex/latex/epstopdf-pkg/epstopdf-base.sty
INPUT /usr/local/texlive/2022/texmf-dist/tex/latex/epstopdf-pkg/epstopdf-base.sty
INPUT /usr/local/texlive/2022/texmf-dist/tex/latex/latexconfig/epstopdf-sys.cfg
INPUT /usr/local/texlive/2022/texmf-dist/tex/latex/latexconfig/epstopdf-sys.cfg
INPUT /usr/local/texlive/2022/texmf-dist/tex/latex/latexconfig/epstopdf-sys.cfg
INPUT /usr/local/texlive/2022/texmf-dist/tex/latex/latexconfig/epstopdf-sys.cfg
INPUT /usr/local/texlive/2022/texmf-dist/fonts/map/fontname/texfonts.map
INPUT /usr/local/texlive/2022/texmf-dist/fonts/tfm/public/cm/cmbx10.tfm
INPUT ./assets/ifapme.png
INPUT ./assets/ifapme.png
INPUT ./assets/ifapme.png
INPUT ./assets/ifapme.png
OUTPUT main.pdf
INPUT ./assets/ifapme.png
INPUT /usr/local/texlive/2022/texmf-var/fonts/map/pdftex/updmap/pdftex.map
INPUT /usr/local/texlive/2022/texmf-dist/fonts/tfm/public/cm/cmr12.tfm
INPUT /usr/local/texlive/2022/texmf-dist/fonts/tfm/public/cm/cmbx12.tfm
INPUT ./main.toc
INPUT main.toc
INPUT main.toc
INPUT /usr/local/texlive/2022/texmf-dist/fonts/tfm/public/cm/cmti10.tfm
OUTPUT main.toc
INPUT /usr/local/texlive/2022/texmf-dist/fonts/tfm/public/cm/cmr12.tfm
INPUT /usr/local/texlive/2022/texmf-dist/fonts/tfm/public/cm/cmbx12.tfm
INPUT /usr/local/texlive/2022/texmf-dist/fonts/tfm/public/cm/cmr8.tfm
INPUT /usr/local/texlive/2022/texmf-dist/fonts/tfm/public/cm/cmr6.tfm
INPUT /usr/local/texlive/2022/texmf-dist/fonts/tfm/public/cm/cmmi8.tfm
INPUT /usr/local/texlive/2022/texmf-dist/fonts/tfm/public/cm/cmmi6.tfm
INPUT /usr/local/texlive/2022/texmf-dist/fonts/tfm/public/cm/cmsy8.tfm
INPUT /usr/local/texlive/2022/texmf-dist/fonts/tfm/public/cm/cmsy6.tfm
INPUT /usr/local/texlive/2022/texmf-dist/fonts/tfm/public/cm/cmcsc10.tfm
INPUT ./assets/blitz.png
INPUT ./assets/blitz.png
INPUT ./assets/blitz.png
INPUT ./assets/blitz.png
INPUT ./assets/blitz.png
INPUT /usr/local/texlive/2022/texmf-dist/fonts/tfm/public/cm/cmtt8.tfm
INPUT /usr/local/texlive/2022/texmf-dist/fonts/tfm/public/cm/cmtt10.tfm
INPUT ./assets/csr.png
INPUT ./assets/csr.png
INPUT ./assets/csr.png
INPUT ./assets/csr.png
INPUT ./assets/csr.png
INPUT ./assets/ssr.png
INPUT ./assets/ssr.png
INPUT ./assets/ssr.png
INPUT ./assets/ssr.png
INPUT ./assets/ssr.png
INPUT ./assets/azure.png
INPUT ./assets/azure.png
INPUT ./assets/azure.png
INPUT ./assets/azure.png
INPUT ./assets/azure.png
INPUT ./assets/gitlab.png
INPUT ./assets/gitlab.png
INPUT ./assets/gitlab.png
INPUT ./assets/gitlab.png
INPUT ./assets/gitlab.png
INPUT ./assets/fork.png
INPUT ./assets/fork.png
INPUT ./assets/fork.png
INPUT ./assets/fork.png
INPUT ./assets/fork.png
INPUT /usr/local/texlive/2022/texmf-dist/fonts/tfm/public/cm/cmbxti10.tfm
INPUT ./assets/user-account.png
INPUT ./assets/user-account.png
INPUT ./assets/user-account.png
INPUT ./assets/user-account.png
INPUT ./assets/user-account.png
INPUT ./assets/quote-stepper.png
INPUT ./assets/quote-stepper.png
INPUT ./assets/quote-stepper.png
INPUT ./assets/quote-stepper.png
INPUT ./assets/quote-stepper.png
INPUT ./assets/listing.png
INPUT ./assets/listing.png
INPUT ./assets/listing.png
INPUT ./assets/listing.png
INPUT ./assets/listing.png
INPUT ./assets/elec.png
INPUT ./assets/elec.png
INPUT ./assets/elec.png
INPUT ./assets/elec.png
INPUT ./assets/elec.png
INPUT ./assets/db.png
INPUT ./assets/db.png
INPUT ./assets/db.png
INPUT ./assets/db.png
INPUT ./assets/db.png
INPUT main.aux
INPUT /usr/local/texlive/2022/texmf-dist/fonts/type1/public/amsfonts/cm/cmbx10.pfb
INPUT /usr/local/texlive/2022/texmf-dist/fonts/type1/public/amsfonts/cm/cmbx12.pfb
INPUT /usr/local/texlive/2022/texmf-dist/fonts/type1/public/amsfonts/cm/cmbxti10.pfb
INPUT /usr/local/texlive/2022/texmf-dist/fonts/type1/public/amsfonts/cm/cmcsc10.pfb
INPUT /usr/local/texlive/2022/texmf-dist/fonts/type1/public/amsfonts/cm/cmmi10.pfb
INPUT /usr/local/texlive/2022/texmf-dist/fonts/type1/public/amsfonts/cm/cmmi6.pfb
INPUT /usr/local/texlive/2022/texmf-dist/fonts/type1/public/amsfonts/cm/cmmi7.pfb
INPUT /usr/local/texlive/2022/texmf-dist/fonts/type1/public/amsfonts/cm/cmmi8.pfb
INPUT /usr/local/texlive/2022/texmf-dist/fonts/type1/public/amsfonts/cm/cmr10.pfb
INPUT /usr/local/texlive/2022/texmf-dist/fonts/type1/public/amsfonts/cm/cmr6.pfb
INPUT /usr/local/texlive/2022/texmf-dist/fonts/type1/public/amsfonts/cm/cmr7.pfb
INPUT /usr/local/texlive/2022/texmf-dist/fonts/type1/public/amsfonts/cm/cmr8.pfb
INPUT /usr/local/texlive/2022/texmf-dist/fonts/type1/public/amsfonts/cm/cmsy5.pfb
INPUT /usr/local/texlive/2022/texmf-dist/fonts/type1/public/amsfonts/cm/cmti10.pfb
INPUT /usr/local/texlive/2022/texmf-dist/fonts/type1/public/amsfonts/cm/cmtt8.pfb
