# Fdb version 3
["pdflatex"] 1658140167 "/Users/jp/tfe/rapport/main.tex" "main.pdf" "main" 1658140171
  "/Users/jp/tfe/rapport/main.tex" 1658140166 50573 3415b29cbe4f7f2cec3e168c897216b2 ""
  "/usr/local/texlive/2022/texmf-dist/fonts/map/fontname/texfonts.map" 1577235249 3524 cb3e574dea2d1052e39280babc910dc8 ""
  "/usr/local/texlive/2022/texmf-dist/fonts/tfm/public/cm/cmbx10.tfm" 1136768653 1328 c834bbb027764024c09d3d2bf908b5f0 ""
  "/usr/local/texlive/2022/texmf-dist/fonts/tfm/public/cm/cmbx12.tfm" 1136768653 1324 c910af8c371558dc20f2d7822f66fe64 ""
  "/usr/local/texlive/2022/texmf-dist/fonts/tfm/public/cm/cmbxti10.tfm" 1136768653 1532 9162035f4e7176612125649e348e2195 ""
  "/usr/local/texlive/2022/texmf-dist/fonts/tfm/public/cm/cmcsc10.tfm" 1136768653 1300 63a6111ee6274895728663cf4b4e7e81 ""
  "/usr/local/texlive/2022/texmf-dist/fonts/tfm/public/cm/cmmi6.tfm" 1136768653 1512 f21f83efb36853c0b70002322c1ab3ad ""
  "/usr/local/texlive/2022/texmf-dist/fonts/tfm/public/cm/cmmi8.tfm" 1136768653 1520 eccf95517727cb11801f4f1aee3a21b4 ""
  "/usr/local/texlive/2022/texmf-dist/fonts/tfm/public/cm/cmr12.tfm" 1136768653 1288 655e228510b4c2a1abe905c368440826 ""
  "/usr/local/texlive/2022/texmf-dist/fonts/tfm/public/cm/cmr6.tfm" 1136768653 1300 b62933e007d01cfd073f79b963c01526 ""
  "/usr/local/texlive/2022/texmf-dist/fonts/tfm/public/cm/cmr8.tfm" 1136768653 1292 21c1c5bfeaebccffdb478fd231a0997d ""
  "/usr/local/texlive/2022/texmf-dist/fonts/tfm/public/cm/cmsy6.tfm" 1136768653 1116 933a60c408fc0a863a92debe84b2d294 ""
  "/usr/local/texlive/2022/texmf-dist/fonts/tfm/public/cm/cmsy8.tfm" 1136768653 1120 8b7d695260f3cff42e636090a8002094 ""
  "/usr/local/texlive/2022/texmf-dist/fonts/tfm/public/cm/cmti10.tfm" 1136768653 1480 aa8e34af0eb6a2941b776984cf1dfdc4 ""
  "/usr/local/texlive/2022/texmf-dist/fonts/tfm/public/cm/cmtt10.tfm" 1136768653 768 1321e9409b4137d6fb428ac9dc956269 ""
  "/usr/local/texlive/2022/texmf-dist/fonts/tfm/public/cm/cmtt8.tfm" 1136768653 768 d7b9a2629a0c353102ad947dc9221d49 ""
  "/usr/local/texlive/2022/texmf-dist/fonts/type1/public/amsfonts/cm/cmbx10.pfb" 1248133631 34811 78b52f49e893bcba91bd7581cdc144c0 ""
  "/usr/local/texlive/2022/texmf-dist/fonts/type1/public/amsfonts/cm/cmbx12.pfb" 1248133631 32080 340ef9bf63678554ee606688e7b5339d ""
  "/usr/local/texlive/2022/texmf-dist/fonts/type1/public/amsfonts/cm/cmbxti10.pfb" 1248133631 36554 b67dc2cfa451409e100b3fcf5f506509 ""
  "/usr/local/texlive/2022/texmf-dist/fonts/type1/public/amsfonts/cm/cmcsc10.pfb" 1248133631 32001 6aeea3afe875097b1eb0da29acd61e28 ""
  "/usr/local/texlive/2022/texmf-dist/fonts/type1/public/amsfonts/cm/cmmi10.pfb" 1248133631 36299 5f9df58c2139e7edcf37c8fca4bd384d ""
  "/usr/local/texlive/2022/texmf-dist/fonts/type1/public/amsfonts/cm/cmmi6.pfb" 1248133631 37166 8ab3487cbe3ab49ebce74c29ea2418db ""
  "/usr/local/texlive/2022/texmf-dist/fonts/type1/public/amsfonts/cm/cmmi7.pfb" 1248133631 36281 c355509802a035cadc5f15869451dcee ""
  "/usr/local/texlive/2022/texmf-dist/fonts/type1/public/amsfonts/cm/cmmi8.pfb" 1248133631 35469 70d41d2b9ea31d5d813066df7c99281c ""
  "/usr/local/texlive/2022/texmf-dist/fonts/type1/public/amsfonts/cm/cmr10.pfb" 1248133631 35752 024fb6c41858982481f6968b5fc26508 ""
  "/usr/local/texlive/2022/texmf-dist/fonts/type1/public/amsfonts/cm/cmr6.pfb" 1248133631 32734 69e00a6b65cedb993666e42eedb3d48f ""
  "/usr/local/texlive/2022/texmf-dist/fonts/type1/public/amsfonts/cm/cmr7.pfb" 1248133631 32762 224316ccc9ad3ca0423a14971cfa7fc1 ""
  "/usr/local/texlive/2022/texmf-dist/fonts/type1/public/amsfonts/cm/cmr8.pfb" 1248133631 32726 0a1aea6fcd6468ee2cf64d891f5c43c8 ""
  "/usr/local/texlive/2022/texmf-dist/fonts/type1/public/amsfonts/cm/cmsy5.pfb" 1248133631 32915 7bf7720c61a5b3a7ff25b0964421c9b6 ""
  "/usr/local/texlive/2022/texmf-dist/fonts/type1/public/amsfonts/cm/cmti10.pfb" 1248133631 37944 359e864bd06cde3b1cf57bb20757fb06 ""
  "/usr/local/texlive/2022/texmf-dist/fonts/type1/public/amsfonts/cm/cmtt8.pfb" 1248133631 24287 6b803fa9eb1ddff9112e00519b09dd9e ""
  "/usr/local/texlive/2022/texmf-dist/tex/context/base/mkii/supp-pdf.mkii" 1461363279 71627 94eb9990bed73c364d7f53f960cc8c5b ""
  "/usr/local/texlive/2022/texmf-dist/tex/generic/babel-french/french.ldf" 1626810218 67482 0072396597d217335316b2928ec3a940 ""
  "/usr/local/texlive/2022/texmf-dist/tex/generic/babel/babel.sty" 1645915365 147649 823237dc86e8acfaa45204ca8085a60e ""
  "/usr/local/texlive/2022/texmf-dist/tex/generic/babel/txtbabel.def" 1643231327 5233 d5e383ed66bf272b71b1a90b596e21c6 ""
  "/usr/local/texlive/2022/texmf-dist/tex/latex/base/article.cls" 1636758526 20144 8a7de377ae7a11ee924a7499611f5a9d ""
  "/usr/local/texlive/2022/texmf-dist/tex/latex/base/inputenc.sty" 1622581934 5049 969aec05d5f39c43f8005910498fcf90 ""
  "/usr/local/texlive/2022/texmf-dist/tex/latex/base/size10.clo" 1636758526 8448 96f18c76bf608a36ee6fbf021ac1dd32 ""
  "/usr/local/texlive/2022/texmf-dist/tex/latex/carlisle/scalefnt.sty" 1137109962 1360 df2086bf924b14b72d6121fe9502fcdb ""
  "/usr/local/texlive/2022/texmf-dist/tex/latex/epstopdf-pkg/epstopdf-base.sty" 1579991033 13886 d1306dcf79a944f6988e688c1785f9ce ""
  "/usr/local/texlive/2022/texmf-dist/tex/latex/float/float.sty" 1137110151 6749 16d2656a1984957e674b149555f1ea1d ""
  "/usr/local/texlive/2022/texmf-dist/tex/latex/graphics-cfg/color.cfg" 1459978653 1213 620bba36b25224fa9b7e1ccb4ecb76fd ""
  "/usr/local/texlive/2022/texmf-dist/tex/latex/graphics-cfg/graphics.cfg" 1465944070 1224 978390e9c2234eab29404bc21b268d1e ""
  "/usr/local/texlive/2022/texmf-dist/tex/latex/graphics-def/pdftex.def" 1601931164 19103 48d29b6e2a64cb717117ef65f107b404 ""
  "/usr/local/texlive/2022/texmf-dist/tex/latex/graphics/color.sty" 1639603921 7197 eb6c1ebf41667a05cb50c23c19d5e8bc ""
  "/usr/local/texlive/2022/texmf-dist/tex/latex/graphics/graphics.sty" 1622581934 18399 7e40f80366dffb22c0e7b70517db5cb4 ""
  "/usr/local/texlive/2022/texmf-dist/tex/latex/graphics/graphicx.sty" 1636758526 7996 a8fb260d598dcaf305a7ae7b9c3e3229 ""
  "/usr/local/texlive/2022/texmf-dist/tex/latex/graphics/keyval.sty" 1622581934 2671 4de6781a30211fe0ea4c672e4a2a8166 ""
  "/usr/local/texlive/2022/texmf-dist/tex/latex/graphics/trig.sty" 1636758526 4009 187ea2dc3194cd5a76cd99a8d7a6c4d0 ""
  "/usr/local/texlive/2022/texmf-dist/tex/latex/l3backend/l3backend-pdftex.def" 1644269979 29921 d0acc05a38bd4aa3af2017f0b7c137ce ""
  "/usr/local/texlive/2022/texmf-dist/tex/latex/latexconfig/epstopdf-sys.cfg" 1279039959 678 4792914a8f45be57bb98413425e4c7af ""
  "/usr/local/texlive/2022/texmf-dist/tex/latex/listings/listings.cfg" 1585170648 1830 e31effa752c61538383451ae21332364 ""
  "/usr/local/texlive/2022/texmf-dist/tex/latex/listings/listings.sty" 1585170648 80964 64e57373f36316e4a09b517cbf1aba2e ""
  "/usr/local/texlive/2022/texmf-dist/tex/latex/listings/lstmisc.sty" 1585170648 77022 ee25ce086f4a79d8cf73bac6f94c02a5 ""
  "/usr/local/texlive/2022/texmf-dist/tex/latex/tools/afterpage.sty" 1622581934 4085 5d204adcbe1ad2fc72fe565763c803ee ""
  "/usr/local/texlive/2022/texmf-dist/web2c/texmf.cnf" 1646502317 40171 cdab547de63d26590bebb3baff566530 ""
  "/usr/local/texlive/2022/texmf-var/fonts/map/pdftex/updmap/pdftex.map" 1647878959 4410336 7d30a02e9fa9a16d7d1f8d037ba69641 ""
  "/usr/local/texlive/2022/texmf-var/web2c/pdftex/pdflatex.fmt" 1657873685 2826436 ebb5bc23f6dd9637f2229c269d8ecaf0 ""
  "/usr/local/texlive/2022/texmf.cnf" 1647878952 577 209b46be99c9075fd74d4c0369380e8c ""
  "assets/azure.png" 1658076550 122782 0f9fca5d9b730bcf861354e95af12817 ""
  "assets/blitz.png" 1657895830 257116 dab77d0201cb94d46da511fe35d7d47d ""
  "assets/csr.png" 1657886156 60355 3fac9b27f1d93eb2f5e7bfc8515d031b ""
  "assets/db.png" 1658132236 637356 9b46f1d25b5f7ac144f9589b90fd8fe9 ""
  "assets/elec.png" 1658130743 115307 a4f783e3bcafada4b5c03c5a7c454485 ""
  "assets/fork.png" 1658076350 172045 e45f6f218ef309e16b5fe9943c823068 ""
  "assets/gitlab.png" 1658075995 183943 d8fde4b1e85686bc5c48f1a88fab9b08 ""
  "assets/ifapme.png" 1658073474 131654 f77948258a59a0466cc212f9957228d5 ""
  "assets/listing.png" 1658013426 71082 3381780a047ba3a0b0d30d7803411721 ""
  "assets/quote-stepper.png" 1658010599 62540 8ee6735551c5f782199e9e6befbefdf7 ""
  "assets/ssr.png" 1657885978 60720 88500046a2cd4e9e595e7dbe6ca28b9a ""
  "assets/user-account.png" 1658010190 79789 7db33a2ccc0c08b19981fb1d512c7c35 ""
  "main.aux" 1658140170 7386 8a20286f67026b357e3a3283772781e7 "pdflatex"
  "main.tex" 1658140166 50573 3415b29cbe4f7f2cec3e168c897216b2 ""
  "main.toc" 1658140170 3419 a921fa6fd527980636cf3990d956bfb4 "pdflatex"
  (generated)
  "main.aux"
  "main.log"
  "main.pdf"
  "main.toc"
